%YAML 1.1
%TAG !u! tag:unity3d.com,2011:
--- !u!1045 &1
EditorBuildSettings:
  m_ObjectHideFlags: 0
  serializedVersion: 2
  m_Scenes:
  - enabled: 1
    path: Assets/Scenes/Splash.unity
    guid: 2b3a84c0cd8b149429160447ae077536
  - enabled: 1
    path: Assets/Scenes/Title Menu.unity
    guid: 3670fd973ed71654a8e6eff28913bb59
  - enabled: 1
    path: Assets/Scenes/Level Selection.unity
    guid: bd40e57c03766b84d8c7b6d28643c05e
  - enabled: 1
    path: Assets/Scenes/0.unity
    guid: 995f87dd0d541114cb3b118a9be74745
  - enabled: 1
    path: Assets/Scenes/1.unity
    guid: 9f343bee7c0a47c44b50d8fc14d21893
  - enabled: 1
    path: Assets/Scenes/2.unity
    guid: 16663145e6a17ea40ae0f349b9c0c6d5
  - enabled: 1
    path: Assets/Scenes/3.unity
    guid: ce46bc1656db20e44ba3894126f2de47
  - enabled: 1
    path: Assets/Scenes/4.unity
    guid: 487961b93afdfc54e93040a65e7d1bd2
  - enabled: 1
    path: Assets/Scenes/Credits.unity
    guid: d4f90ad6b93daaa429f88b066a796679
